<svg width="16" height="16" viewBox="0 0 16 16" fill="none" xmlns="http://www.w3.org/2000/svg">
<g clip-path="url(#clip0_0_1811)">
<path d="M8.00016 1.33325C11.6822 1.33325 14.6668 4.31792 14.6668 7.99992C14.6668 11.6819 11.6822 14.6666 8.00016 14.6666C4.31816 14.6666 1.3335 11.6819 1.3335 7.99992C1.3335 4.31792 4.31816 1.33325 8.00016 1.33325ZM8.00016 2.66659C6.58567 2.66659 5.22912 3.22849 4.22893 4.22868C3.22873 5.22888 2.66683 6.58543 2.66683 7.99992C2.66683 9.41441 3.22873 10.771 4.22893 11.7712C5.22912 12.7713 6.58567 13.3333 8.00016 13.3333C9.41465 13.3333 10.7712 12.7713 11.7714 11.7712C12.7716 10.771 13.3335 9.41441 13.3335 7.99992C13.3335 6.58543 12.7716 5.22888 11.7714 4.22868C10.7712 3.22849 9.41465 2.66659 8.00016 2.66659ZM8.00016 3.99992C8.16345 3.99994 8.32105 4.05989 8.44308 4.1684C8.5651 4.2769 8.64306 4.42642 8.66216 4.58859L8.66683 4.66658V7.72392L10.4715 9.52858C10.5911 9.64856 10.6605 9.80954 10.6656 9.97884C10.6708 10.1481 10.6114 10.3131 10.4993 10.4401C10.3873 10.5671 10.2311 10.6468 10.0625 10.6629C9.8939 10.6789 9.72549 10.6302 9.5915 10.5266L9.52883 10.4713L7.52883 8.47125C7.42522 8.36755 7.35867 8.23259 7.3395 8.08725L7.3335 7.99992V4.66658C7.3335 4.48977 7.40373 4.3202 7.52876 4.19518C7.65378 4.07016 7.82335 3.99992 8.00016 3.99992Z" fill="#8D97B0"/>
</g>
<defs>
<clipPath id="clip0_0_1811">
<rect width="16" height="16" fill="white"/>
</clipPath>
</defs>
</svg>
